<svg xmlns="http://www.w3.org/2000/svg" width="24" height="24" viewBox="0 0 24 24">
    <path fill="#333" fillRule="nonzero" d="M9.5 19a.5.5 0 0 1-.34-.13.51.51 0 0 1 0-.71L14.82 12 9.13 5.84a.502.502 0 0 1 .74-.68l6 6.5a.52.52 0 0 1 0 .68l-6 6.5a.5.5 0 0 1-.37.16z"/>
</svg>
