<svg xmlns="http://www.w3.org/2000/svg" width="30" height="28" viewBox="0 0 30 28">
    <path fill="#EAAD0D" fillRule="evenodd" d="M15 22.252L5.73 28l2.705-10.429L0 10.695l10.943-.697L15 0l4.057 9.998L30 10.695l-8.435 6.876L24.27 28z"/>
</svg>
